Lecture 03
…
kard_summary <- kard_clean %>% 
  group_by(year) %>% 
  summarize_at(c("kim", "khloe", "kourtney", "kendall", "kylie"), mean)

What we want to do now is to plot these data

kard_clean

## # A tibble: 217 × 9
##     year month   day   kim khloe kourtney kendall kylie date      
##    <int> <int> <dbl> <dbl> <dbl>    <dbl>   <dbl> <dbl> <date>    
##  1  2004     1    15     2     0        1       1     2 2004-01-15
##  2  2004     2    15     1     1        1       1     2 2004-02-15
##  3  2004     3    15     1     0        0       1     2 2004-03-15
##  4  2004     4    15     2     1        1       1     2 2004-04-15
##  5  2004     5    15     1     1        1       1     1 2004-05-15
##  6  2004     6    15     1     1        0       1     1 2004-06-15
##  7  2004     7    15     1     0        0       1     2 2004-07-15
##  8  2004     8    15     1     1        1       1     1 2004-08-15
##  9  2004     9    15     1     0        1       1     1 2004-09-15
## 10  2004    10    15     1     0        0       1     1 2004-10-15
## # … with 207 more rows

Let’s think about what is wrong with this table and how else we can improve it.

kard_tidy <- kard_clean %>%
  pivot_longer(cols = c("kim", "khloe", "kourtney", "kendall", "kylie"),
               names_to = "name",
               values_to = "score")

kard_tidy

## # A tibble: 1,085 × 6
##     year month   day date       name     score
##    <int> <int> <dbl> <date>     <chr>    <dbl>
##  1  2004     1    15 2004-01-15 kim          2
##  2  2004     1    15 2004-01-15 khloe        0
##  3  2004     1    15 2004-01-15 kourtney     1
##  4  2004     1    15 2004-01-15 kendall      1
##  5  2004     1    15 2004-01-15 kylie        2
##  6  2004     2    15 2004-02-15 kim          1
##  7  2004     2    15 2004-02-15 khloe        1
##  8  2004     2    15 2004-02-15 kourtney     1
##  9  2004     2    15 2004-02-15 kendall      1
## 10  2004     2    15 2004-02-15 kylie        2
## # … with 1,075 more rows
…
